{"count":419,"next":"https://wger.de/api/v2/exerciseinfo/?format=json&limit=20&offset=20","previous":null,"results":[{"id":345,"name":"2 Handed Kettlebell Swing","uuid":"c788d643-150a-4ac7-97ef-84643c6419bf","exercise_base_id":9,"description":"<p>Two Handed Russian Style Kettlebell swing</p>","creation_date":"2015-08-03","category":{"id":10,"name":"Abs"},"muscles":[],"muscles_secondary":[],"equipment":[{"id":10,"name":"Kettlebell"}],"language":{"id":2,"short_name":"en","full_name":"English"},"license":{"id":2,"full_name":"Creative Commons Attribution Share Alike 4","short_name":"CC-BY-SA 4","url":"https://creativecommons.org/licenses/by-sa/4.0/deed.en"},"license_author":"deusinvictus","images":[],"videos":[],"comments":[],"variations":[]},{"id":174,"name":"Abduktoren-Maschine","uuid":"99881bdd-43d7-4c3b-82ed-9c187d0455b7","exercise_base_id":12,"description":"<ul>\n<li>in eine aufrechte Position setzen, bei der die Beine hüftbreit geöffnet sind</li>\n<li>den Rücken, die Knie und die Oberschenkelaußenseite an die jeweiligen Polster pressen</li>\n<li>mit den Händen an den Griffen festhalten</li>\n<li>die Oberschenkel bis zum Anschlagpunkt der Hebelarme auseinander drücken</li>\n<li>danach die Beine wieder zusammen führen</li>\n<li>das Gesäß nicht vom Sitz abheben</li>\n<li>beim Auseinanderdrücken der Hebelarme aus- und beim Zusammenführen einatmen</li>\n</ul>","creation_date":"2013-07-19","category":{"id":9,"name":"Legs"},"muscles":[{"id":8,"name":"Gluteus maximus","is_front":false,"name_en":"Glutes","image_url_main":"/static/images/muscles/main/muscle-8.svg","image_url_secondary":"/static/images/muscles/secondary/muscle-8.svg"}],"muscles_secondary":[],"equipment":[],"language":{"id":1,"short_name":"de","full_name":"Deutsch"},"license":{"id":1,"full_name":" Creative Commons Attribution Share Alike 3","short_name":"CC-BY-SA 3","url":"https://creativecommons.org/licenses/by-sa/3.0/deed.en"},"license_author":"flori","images":[],"videos":[],"comments":[],"variations":[]},{"id":223,"name":"Adduktoren Maschine","uuid":"e56d0a17-b1b8-427d-991e-97c530c7db6a","exercise_base_id":13,"description":"<p>Oberschenkel Innenseite!</p>","creation_date":"2014-02-26","category":{"id":9,"name":"Legs"},"muscles":[],"muscles_secondary":[],"equipment":[],"language":{"id":1,"short_name":"de","full_name":"Deutsch"},"license":{"id":1,"full_name":" Creative Commons Attribution Share Alike 3","short_name":"CC-BY-SA 3","url":"https://creativecommons.org/licenses/by-sa/3.0/deed.en"},"license_author":"Marius","images":[],"videos":[],"comments":[],"variations":[]},{"id":228,"name":"Arnold Press","uuid":"880bff63-6798-4ffc-a818-b2a1ccfec0f7","exercise_base_id":20,"description":"<p>Zwei Kurzhanteln mit den Handflächen nach innen vor der Brust halten, Ellbogen unterhalb der Handgelenke.</p>\n<p>Ellbogen nach außen bringen und Hanteln über den Kopf heben. Drehung kommt aus dem Ellbogen, nicht aus den Armen!</p>\n<p>Wenn die Arme durchgestreckt sind, die gleiche Bewegung rückwärts ausführen.</p>","creation_date":"2014-03-09","category":{"id":13,"name":"Shoulders"},"muscles":[],"muscles_secondary":[],"equipment":[{"id":3,"name":"Dumbbell"}],"language":{"id":1,"short_name":"de","full_name":"Deutsch"},"license":{"id":3,"full_name":"Creative Commons Public Domain 1.0","short_name":"CC0","url":"http://creativecommons.org/publicdomain/zero/1.0/"},"license_author":"bloody_disgrace","images":[],"videos":[],"comments":[],"variations":[228,900,911,153,266,241]},{"id":227,"name":"Arnold Shoulder Press","uuid":"53ca25b3-61d9-4f72-bfdb-492b83484ff5","exercise_base_id":20,"description":"<p>Very common shoulder exercise.</p>\n<p> </p>\n<p>As shown here: https://www.youtube.com/watch?v=vj2w851ZHRM</p>","creation_date":"2014-03-09","category":{"id":13,"name":"Shoulders"},"muscles":[],"muscles_secondary":[],"equipment":[{"id":3,"name":"Dumbbell"}],"language":{"id":2,"short_name":"en","full_name":"English"},"license":{"id":1,"full_name":" Creative Commons Attribution Share Alike 3","short_name":"CC-BY-SA 3","url":"https://creativecommons.org/licenses/by-sa/3.0/deed.en"},"license_author":"trzr23","images":[],"videos":[],"comments":[],"variations":[227,329,229,190,119,123,152,155]},{"id":353,"name":"Asai Squad","uuid":"583281c7-2362-48e7-95d5-8fd6c455e0fb","exercise_base_id":22,"description":"<ol>\n<li>single leg sit and stand</li>\n</ol>","creation_date":"2015-10-22","category":{"id":9,"name":"Legs"},"muscles":[{"id":10,"name":"Quadriceps femoris","is_front":true,"name_en":"Quads","image_url_main":"/static/images/muscles/main/muscle-10.svg","image_url_secondary":"/static/images/muscles/secondary/muscle-10.svg"}],"muscles_secondary":[{"id":8,"name":"Gluteus maximus","is_front":false,"name_en":"Glutes","image_url_main":"/static/images/muscles/main/muscle-8.svg","image_url_secondary":"/static/images/muscles/secondary/muscle-8.svg"}],"equipment":[],"language":{"id":7,"short_name":"pt","full_name":"Português"},"license":{"id":2,"full_name":"Creative Commons Attribution Share Alike 4","short_name":"CC-BY-SA 4","url":"https://creativecommons.org/licenses/by-sa/4.0/deed.en"},"license_author":"Tetsuhiko Asai","images":[],"videos":[],"comments":[],"variations":[]},{"id":5,"name":"Ausfallschritte im Gehen","uuid":"5675ae61-6597-4806-ae5c-2dda5a5ac03c","exercise_base_id":206,"description":"<p>.</p>","creation_date":"2013-05-05","category":{"id":9,"name":"Legs"},"muscles":[{"id":10,"name":"Quadriceps femoris","is_front":true,"name_en":"Quads","image_url_main":"/static/images/muscles/main/muscle-10.svg","image_url_secondary":"/static/images/muscles/secondary/muscle-10.svg"}],"muscles_secondary":[{"id":8,"name":"Gluteus maximus","is_front":false,"name_en":"Glutes","image_url_main":"/static/images/muscles/main/muscle-8.svg","image_url_secondary":"/static/images/muscles/secondary/muscle-8.svg"}],"equipment":[{"id":3,"name":"Dumbbell"}],"language":{"id":1,"short_name":"de","full_name":"Deutsch"},"license":{"id":1,"full_name":" Creative Commons Attribution Share Alike 3","short_name":"CC-BY-SA 3","url":"https://creativecommons.org/licenses/by-sa/3.0/deed.en"},"license_author":"wger.de","images":[{"id":121,"uuid":"b0e8b77a-97c2-470f-9fc0-928ffb2aae89","exercise_base":206,"image":"https://wger.de/media/exercise-images/113/Walking-lunges-1.png","is_main":true,"status":"2","style":"1"},{"id":122,"uuid":"52c4434e-b5a2-4fce-af61-d997b510438a","exercise_base":206,"image":"https://wger.de/media/exercise-images/113/Walking-lunges-2.png","is_main":false,"status":"2","style":"1"},{"id":123,"uuid":"3d311933-e073-409b-92d3-41f3d75e8c94","exercise_base":206,"image":"https://wger.de/media/exercise-images/113/Walking-lunges-3.png","is_main":false,"status":"2","style":"1"},{"id":124,"uuid":"c0dff0d5-618d-4739-94f9-7d3cd76bc8a1","exercise_base":206,"image":"https://wger.de/media/exercise-images/113/Walking-lunges-4.png","is_main":false,"status":"2","style":"1"}],"videos":[],"comments":[],"variations":[55,5]},{"id":55,"name":"Ausfallschritte Stehend","uuid":"27301836-ed7f-4510-83e7-66c0b8041a44","exercise_base_id":205,"description":"<p>.</p>","creation_date":"2013-05-05","category":{"id":9,"name":"Legs"},"muscles":[{"id":10,"name":"Quadriceps femoris","is_front":true,"name_en":"Quads","image_url_main":"/static/images/muscles/main/muscle-10.svg","image_url_secondary":"/static/images/muscles/secondary/muscle-10.svg"}],"muscles_secondary":[{"id":8,"name":"Gluteus maximus","is_front":false,"name_en":"Glutes","image_url_main":"/static/images/muscles/main/muscle-8.svg","image_url_secondary":"/static/images/muscles/secondary/muscle-8.svg"}],"equipment":[{"id":3,"name":"Dumbbell"}],"language":{"id":1,"short_name":"de","full_name":"Deutsch"},"license":{"id":1,"full_name":" Creative Commons Attribution Share Alike 3","short_name":"CC-BY-SA 3","url":"https://creativecommons.org/licenses/by-sa/3.0/deed.en"},"license_author":"wger.de","images":[],"videos":[],"comments":[{"id":55,"exercise":55,"comment":"Oben keine Pause, sofort wieder runter."}],"variations":[55,5]},{"id":135,"name":"Ausfallschritt Trizepsdrücken ü. Kopf, ß-Stange","uuid":"c8d08cbd-d406-4ce0-b1b9-10b236272d30","exercise_base_id":25,"description":"","creation_date":"2013-05-05","category":{"id":8,"name":"Arms"},"muscles":[{"id":5,"name":"Triceps brachii","is_front":false,"name_en":"Triceps","image_url_main":"/static/images/muscles/main/muscle-5.svg","image_url_secondary":"/static/images/muscles/secondary/muscle-5.svg"}],"muscles_secondary":[],"equipment":[],"language":{"id":1,"short_name":"de","full_name":"Deutsch"},"license":{"id":1,"full_name":" Creative Commons Attribution Share Alike 3","short_name":"CC-BY-SA 3","url":"https://creativecommons.org/licenses/by-sa/3.0/deed.en"},"license_author":"wger.de","images":[],"videos":[],"comments":[],"variations":[]},{"id":289,"name":"Axe Hold","uuid":"6add5973-86d0-4543-928a-6bb8b3f34efc","exercise_base_id":31,"description":"<p>Grab dumbbells and extend arms to side and hold as long as you can</p>","creation_date":"2014-11-02","category":{"id":8,"name":"Arms"},"muscles":[],"muscles_secondary":[],"equipment":[{"id":3,"name":"Dumbbell"}],"language":{"id":2,"short_name":"en","full_name":"English"},"license":{"id":1,"full_name":" Creative Commons Attribution Share Alike 3","short_name":"CC-BY-SA 3","url":"https://creativecommons.org/licenses/by-sa/3.0/deed.en"},"license_author":"GrosseHund","images":[],"videos":[],"comments":[],"variations":[]},{"id":677,"name":"Axe Hold","uuid":"8e9d8968-323d-468c-9174-8cf11a105fad","exercise_base_id":31,"description":"<p>Nehmen Sie die Hanteln und strecken Sie die Arme zur Seite. Halten Sie sie so lange wie möglich.</p>","creation_date":"2020-01-16","category":{"id":8,"name":"Arms"},"muscles":[],"muscles_secondary":[],"equipment":[{"id":3,"name":"Dumbbell"}],"language":{"id":1,"short_name":"de","full_name":"Deutsch"},"license":{"id":2,"full_name":"Creative Commons Attribution Share Alike 4","short_name":"CC-BY-SA 4","url":"https://creativecommons.org/licenses/by-sa/4.0/deed.en"},"license_author":"Wunschcoach","images":[],"videos":[],"comments":[],"variations":[]},{"id":637,"name":"Back Squat","uuid":"0fd6154d-fb53-4b24-acc0-1c5c05b57ebc","exercise_base_id":34,"description":"<p>Place a barbell in a rack just below shoulder-height. Dip under the bar to put it behind the neck across the top of the back, and grip the bar with the hands wider than shoulder-width apart. Lift the chest up and squeeze the shoulder blades together to keep the straight back throughout the entire movement. Stand up to bring the bar off the rack and step backwards, then place the feet so that they are a little wider than shoulder-width apart. Sit back into hips and keep the back straight and the chest up, squatting down so the hips are below the knees. From the bottom of the squat, press feet into the ground and push hips forward to return to the top of the standing position.</p>","creation_date":"2019-05-29","category":{"id":9,"name":"Legs"},"muscles":[],"muscles_secondary":[],"equipment":[],"language":{"id":2,"short_name":"en","full_name":"English"},"license":{"id":2,"full_name":"Creative Commons Attribution Share Alike 4","short_name":"CC-BY-SA 4","url":"https://creativecommons.org/licenses/by-sa/4.0/deed.en"},"license_author":"axel","images":[],"videos":[],"comments":[],"variations":[]},{"id":38,"name":"Bankdrücken Eng","uuid":"4def60e7-ed8d-4a9d-bf76-ceb15ecf9779","exercise_base_id":76,"description":"<p>Lege dich auf die Bank, die Stange direkt über die Augen, die Knie etwas angewinkelt und die Füße fest auf dem Boden. Greife nun die Stange mit einem engen Griff (nicht mehr als 20cm.). Führe nun das Gewicht so weit nach unten, bis die Oberarme paralell zum Boden sind, gehe dann wieder nach obern. Bringe die Stange nicht wie beim (breiten) Bankdrücken auf Brusthöhe runter, sondern weiter unten. Auf der tiefsten Stelle sollten deine Arme einen rechten Winkel machen.</p>","creation_date":"2013-05-05","category":{"id":8,"name":"Arms"},"muscles":[{"id":5,"name":"Triceps brachii","is_front":false,"name_en":"Triceps","image_url_main":"/static/images/muscles/main/muscle-5.svg","image_url_secondary":"/static/images/muscles/secondary/muscle-5.svg"}],"muscles_secondary":[{"id":2,"name":"Anterior deltoid","is_front":true,"name_en":"Shoulders","image_url_main":"/static/images/muscles/main/muscle-2.svg","image_url_secondary":"/static/images/muscles/secondary/muscle-2.svg"},{"id":4,"name":"Pectoralis major","is_front":true,"name_en":"Chest","image_url_main":"/static/images/muscles/main/muscle-4.svg","image_url_secondary":"/static/images/muscles/secondary/muscle-4.svg"}],"equipment":[{"id":1,"name":"Barbell"},{"id":8,"name":"Bench"}],"language":{"id":1,"short_name":"de","full_name":"Deutsch"},"license":{"id":1,"full_name":" Creative Commons Attribution Share Alike 3","short_name":"CC-BY-SA 3","url":"https://creativecommons.org/licenses/by-sa/3.0/deed.en"},"license_author":"wger.de","images":[{"id":15,"uuid":"1c37e4e1-5144-4a50-8294-16180a9bc767","exercise_base":76,"image":"https://wger.de/media/exercise-images/88/Narrow-grip-bench-press-1.png","is_main":true,"status":"2","style":"1"},{"id":16,"uuid":"4b3c5bf6-ea2a-4fa4-a3cb-98979c1f380a","exercise_base":76,"image":"https://wger.de/media/exercise-images/88/Narrow-grip-bench-press-2.png","is_main":false,"status":"2","style":"1"}],"videos":[],"comments":[],"variations":[38,58,25]},{"id":77,"name":"Bankdrücken KH","uuid":"06450bcb-03a8-4bd7-8349-ef677ee57ea3","exercise_base_id":75,"description":"<p>Der Bewegungsablauf ist ähnlich zur Übung mit einer Langhantel.</p>\n<p>Nehme die Gewichte in die Hände und lege dich auf die Bank. Halte die Hanteln neben der Brust auf Brustwarzenhöhe und drücke sie nun nach oben, bis die Arme ausgestreckt sind. Lasse die Gewichte nun langsam und kontrolliert runter.</p>\n<p> </p>","creation_date":"2013-05-05","category":{"id":11,"name":"Chest"},"muscles":[{"id":4,"name":"Pectoralis major","is_front":true,"name_en":"Chest","image_url_main":"/static/images/muscles/main/muscle-4.svg","image_url_secondary":"/static/images/muscles/secondary/muscle-4.svg"}],"muscles_secondary":[{"id":2,"name":"Anterior deltoid","is_front":true,"name_en":"Shoulders","image_url_main":"/static/images/muscles/main/muscle-2.svg","image_url_secondary":"/static/images/muscles/secondary/muscle-2.svg"},{"id":5,"name":"Triceps brachii","is_front":false,"name_en":"Triceps","image_url_main":"/static/images/muscles/main/muscle-5.svg","image_url_secondary":"/static/images/muscles/secondary/muscle-5.svg"}],"equipment":[{"id":8,"name":"Bench"},{"id":3,"name":"Dumbbell"}],"language":{"id":1,"short_name":"de","full_name":"Deutsch"},"license":{"id":1,"full_name":" Creative Commons Attribution Share Alike 3","short_name":"CC-BY-SA 3","url":"https://creativecommons.org/licenses/by-sa/3.0/deed.en"},"license_author":"wger.de","images":[{"id":113,"uuid":"87a312b7-d01e-4f69-9bda-1ed2f1fcd9ab","exercise_base":75,"image":"https://wger.de/media/exercise-images/97/Dumbbell-bench-press-1.png","is_main":true,"status":"2","style":"1"},{"id":114,"uuid":"3c765b1e-eab9-4b61-8e2e-7d7591cb6ccb","exercise_base":75,"image":"https://wger.de/media/exercise-images/97/Dumbbell-bench-press-2.png","is_main":false,"status":"2","style":"1"}],"videos":[],"comments":[{"id":131,"exercise":77,"comment":"Explosive Bewegung nach oben"},{"id":132,"exercise":77,"comment":"Der Körper bildet mit Arme und Schultern kein \"T\""}],"variations":[]},{"id":15,"name":"Bankdrücken LH","uuid":"198dcb2e-e35f-4b69-ae8b-e1124d438eae","exercise_base_id":73,"description":"<p>Lege dich auf die Bank, die Stange direkt über die Augen, die Knie etwas angewinkelt und die Füße fest auf dem Boden. Greife die Stange breit und lasse sie langsam und kontrolliert runter, dabei sollte die Stange kurz auf Brustwarzenhöhe den Körper berühren. Dann das Gewicht wieder hochdrücken bis die Arme durchgestreckt sind.</p>\n<p>Bei hohem Gewicht, empfielt sich natürlich einen <em>Spotter</em> zu haben, der einen hilft falls man die Stange nicht alleine hochdrücken kann.</p>\n<p>Mit der Breite des Griffs kann außerdem kontrolliert werden, welcher Bereich der Brust stärker belastet wird:</p>\n<ul>\n<li>breiter Griff: äußere Brustmuskeln</li>\n<li>enger Griff: innere Brustmuskeln und Trizeps</li>\n</ul>","creation_date":"2013-05-05","category":{"id":11,"name":"Chest"},"muscles":[{"id":4,"name":"Pectoralis major","is_front":true,"name_en":"Chest","image_url_main":"/static/images/muscles/main/muscle-4.svg","image_url_secondary":"/static/images/muscles/secondary/muscle-4.svg"}],"muscles_secondary":[{"id":2,"name":"Anterior deltoid","is_front":true,"name_en":"Shoulders","image_url_main":"/static/images/muscles/main/muscle-2.svg","image_url_secondary":"/static/images/muscles/secondary/muscle-2.svg"},{"id":5,"name":"Triceps brachii","is_front":false,"name_en":"Triceps","image_url_main":"/static/images/muscles/main/muscle-5.svg","image_url_secondary":"/static/images/muscles/secondary/muscle-5.svg"}],"equipment":[{"id":1,"name":"Barbell"},{"id":8,"name":"Bench"}],"language":{"id":1,"short_name":"de","full_name":"Deutsch"},"license":{"id":1,"full_name":" Creative Commons Attribution Share Alike 3","short_name":"CC-BY-SA 3","url":"https://creativecommons.org/licenses/by-sa/3.0/deed.en"},"license_author":"wger.de","images":[{"id":68,"uuid":"08517378-bc36-4f6b-9952-1f45a02d936e","exercise_base":73,"image":"https://wger.de/media/exercise-images/192/Bench-press-1.png","is_main":true,"status":"2","style":"1"},{"id":70,"uuid":"41e5c58e-0325-4620-8d96-7372cc4dae8c","exercise_base":73,"image":"https://wger.de/media/exercise-images/192/Bench-press-2.png","is_main":false,"status":"2","style":"1"}],"videos":[],"comments":[{"id":22,"exercise":15,"comment":"Arme oben nicht ganz ausstrecken"},{"id":130,"exercise":15,"comment":"Handgelenke möglichst gerade halten"}],"variations":[15,17,720,725]},{"id":343,"name":"Barbell Ab Rollout","uuid":"1b9dc5bc-790b-4e21-a55d-f8b3115e94c5","exercise_base_id":41,"description":"<p>Place a barbell on the floor at your feet.</p>\n<p>Bending at the waist, grip the barbell with a shoulder with overhand grip.</p>\n<p>With a slow controlled motion, roll the bar out so that your back is straight.</p>\n<p>Roll back up raising your hips and butt as you return to the starting position.</p>","creation_date":"2015-07-27","category":{"id":10,"name":"Abs"},"muscles":[{"id":14,"name":"Obliquus externus abdominis","is_front":true,"name_en":"","image_url_main":"/static/images/muscles/main/muscle-14.svg","image_url_secondary":"/static/images/muscles/secondary/muscle-14.svg"}],"muscles_secondary":[],"equipment":[{"id":1,"name":"Barbell"}],"language":{"id":2,"short_name":"en","full_name":"English"},"license":{"id":2,"full_name":"Creative Commons Attribution Share Alike 4","short_name":"CC-BY-SA 4","url":"https://creativecommons.org/licenses/by-sa/4.0/deed.en"},"license_author":"sevae","images":[],"videos":[],"comments":[],"variations":[]},{"id":407,"name":"Barbell Hack Squats","uuid":"1215dad0-b7e0-42c6-80d4-112f69acb68a","exercise_base_id":43,"description":"<p>Perform leg squats with barbell behind your legs</p>","creation_date":"2016-07-30","category":{"id":9,"name":"Legs"},"muscles":[],"muscles_secondary":[],"equipment":[{"id":1,"name":"Barbell"}],"language":{"id":2,"short_name":"en","full_name":"English"},"license":{"id":2,"full_name":"Creative Commons Attribution Share Alike 4","short_name":"CC-BY-SA 4","url":"https://creativecommons.org/licenses/by-sa/4.0/deed.en"},"license_author":"BePieToday","images":[],"videos":[],"comments":[],"variations":[407,342,300,191,650,389,355,160,185,111,795,387]},{"id":405,"name":"Barbell Lunges","uuid":"ae6a6c23-4616-49b7-a152-49d7461c2b7f","exercise_base_id":46,"description":"<p>Put barbell on the back of your shoulders. Stand upright, then take the first step forward. Step should bring you forward so that your supporting legs knee can touch the floor. Then stand back up and repeat with the other leg.</p>\n<p>Remember to keep good posture.</p>","creation_date":"2016-07-30","category":{"id":9,"name":"Legs"},"muscles":[{"id":10,"name":"Quadriceps femoris","is_front":true,"name_en":"Quads","image_url_main":"/static/images/muscles/main/muscle-10.svg","image_url_secondary":"/static/images/muscles/secondary/muscle-10.svg"}],"muscles_secondary":[{"id":8,"name":"Gluteus maximus","is_front":false,"name_en":"Glutes","image_url_main":"/static/images/muscles/main/muscle-8.svg","image_url_secondary":"/static/images/muscles/secondary/muscle-8.svg"}],"equipment":[{"id":1,"name":"Barbell"}],"language":{"id":2,"short_name":"en","full_name":"English"},"license":{"id":2,"full_name":"Creative Commons Attribution Share Alike 4","short_name":"CC-BY-SA 4","url":"https://creativecommons.org/licenses/by-sa/4.0/deed.en"},"license_author":"Mikko Ruohola","images":[],"videos":[],"comments":[],"variations":[405,112,113]},{"id":759,"name":"Barbell Reverse Wrist Curl","uuid":"95b25f5e-4a01-48f1-a3df-2b7fe8fd624d","exercise_base_id":48,"description":"<p>Sitting on a bench, grab a barbell with your palms facing down and your hands shoulder-width apart. Rest your forearms on your thighs and allow your wrists to hang over your knees.</p>\n<p>Curl your knuckles towards your face, lifting the barbell. Pause for a moment in the top position, then slowly return the barbell to the starting position.</p>","creation_date":"2020-04-01","category":{"id":8,"name":"Arms"},"muscles":[],"muscles_secondary":[],"equipment":[{"id":1,"name":"Barbell"}],"language":{"id":10,"short_name":"sv","full_name":"Svenska"},"license":{"id":2,"full_name":"Creative Commons Attribution Share Alike 4","short_name":"CC-BY-SA 4","url":"https://creativecommons.org/licenses/by-sa/4.0/deed.en"},"license_author":"burenl","images":[],"videos":[],"comments":[],"variations":[]},{"id":344,"name":"Barbell Triceps Extension","uuid":"2cd5e256-20a7-4bc8-a7a8-d62bf8ce00cf","exercise_base_id":50,"description":"<p>Position barbell overhead with narrow overhand grip.</p>\n<p>Lower forearm behind upper arm with elbows remaining overhead. Extend forearm overhead. Lower and repeat.</p>","creation_date":"2015-07-27","category":{"id":8,"name":"Arms"},"muscles":[{"id":5,"name":"Triceps brachii","is_front":false,"name_en":"Triceps","image_url_main":"/static/images/muscles/main/muscle-5.svg","image_url_secondary":"/static/images/muscles/secondary/muscle-5.svg"}],"muscles_secondary":[{"id":2,"name":"Anterior deltoid","is_front":true,"name_en":"Shoulders","image_url_main":"/static/images/muscles/main/muscle-2.svg","image_url_secondary":"/static/images/muscles/secondary/muscle-2.svg"},{"id":4,"name":"Pectoralis major","is_front":true,"name_en":"Chest","image_url_main":"/static/images/muscles/main/muscle-4.svg","image_url_secondary":"/static/images/muscles/secondary/muscle-4.svg"}],"equipment":[{"id":1,"name":"Barbell"}],"language":{"id":2,"short_name":"en","full_name":"English"},"license":{"id":2,"full_name":"Creative Commons Attribution Share Alike 4","short_name":"CC-BY-SA 4","url":"https://creativecommons.org/licenses/by-sa/4.0/deed.en"},"license_author":"sevae","images":[],"videos":[],"comments":[],"variations":[344,274,89,90]}]}

